0000.000 (0) Opened log file at time: Mon, 08 Apr 2019 10:53:04 +0000 on http://futurapreligas-com-br.umbler.net/sitefutura
0000.010 (0) UpdraftPlus WordPress backup plugin (https://updraftplus.com): 2.16.10.24 WP: 5.1.1 PHP: 7.3.0 (fpm-fcgi, Linux UBAPDWEB12779 3.10.0-229.20.1.el7.x86_64 #1 SMP Tue Nov 3 19:10:07 UTC 2015 x86_64) MySQL: 5.6.40-log WPLANG: pt_BR Server: Apache safe_mode: 0 max_execution_time: 30 memory_limit: 256M (used: 26.4M | 6M) multisite: N openssl: OpenSSL 1.0.2k  26 Jan 2017 mcrypt: Y LANG:  ZipArchive::addFile: Y
0000.015 (0) Free space on disk containing Updraft's temporary directory: 14575.5 MB
0000.024 (0) Tasks: Backup files: 1 (schedule: weekly) Backup DB: 1 (schedule: weekly)
0000.039 (0) Requesting semaphore lock (fd) (apparently not via scheduler)
0000.080 (0) Set semaphore last lock (fd) time to 2019-04-08 10:53:04
0000.094 (0) Semaphore lock (fd) complete
0000.119 (0) Backup run: resumption=0, nonce=b2b2e750db6c, file_nonce=b2b2e750db6c begun at=1554720784 (0s ago), job type=backup, label=last-bkp
0000.134 (0) Scheduling a resumption (1) after 300 seconds (1554721084) in case this run gets aborted
0000.146 (0) Checking if we have a zip executable available
0000.161 (0) Creation of backups of directories: beginning
0000.196 (0) Beginning creation of dump of plugins (split every: 400 MB)
0001.619 (0) Total entities for the zip file: 1019 directories, 5216 files (0 skipped as non-modified), 73.1 MB
0001.649 (0) Zip: backup_2019-04-08-0753_Futura_Pr_Ligas_b2b2e750db6c-plugins.zip.tmp: 100 files added (on-disk size: 0 KB)
0001.668 (0) Zip: backup_2019-04-08-0753_Futura_Pr_Ligas_b2b2e750db6c-plugins.zip.tmp: 200 files added (on-disk size: 0 KB)
0001.685 (0) Zip: backup_2019-04-08-0753_Futura_Pr_Ligas_b2b2e750db6c-plugins.zip.tmp: 300 files added (on-disk size: 0 KB)
0001.700 (0) Zip: backup_2019-04-08-0753_Futura_Pr_Ligas_b2b2e750db6c-plugins.zip.tmp: 400 files added (on-disk size: 0 KB)
0001.720 (0) Zip: backup_2019-04-08-0753_Futura_Pr_Ligas_b2b2e750db6c-plugins.zip.tmp: 500 files added (on-disk size: 0 KB)
0001.726 (0) Adding batch to zip file (UpdraftPlus_ZipArchive): over 500 files added on this batch (6.5 MB, 5216 files batched, 501 (501) added so far); re-opening (prior size: 0 KB)
0002.411 (0) Zip: backup_2019-04-08-0753_Futura_Pr_Ligas_b2b2e750db6c-plugins.zip.tmp: 600 files added (on-disk size: 2247.9 KB)
0002.432 (0) Zip: backup_2019-04-08-0753_Futura_Pr_Ligas_b2b2e750db6c-plugins.zip.tmp: 700 files added (on-disk size: 2247.9 KB)
0002.452 (0) Zip: backup_2019-04-08-0753_Futura_Pr_Ligas_b2b2e750db6c-plugins.zip.tmp: 800 files added (on-disk size: 2247.9 KB)
0002.472 (0) Zip: backup_2019-04-08-0753_Futura_Pr_Ligas_b2b2e750db6c-plugins.zip.tmp: 900 files added (on-disk size: 2247.9 KB)
0002.500 (0) Zip: backup_2019-04-08-0753_Futura_Pr_Ligas_b2b2e750db6c-plugins.zip.tmp: 1000 files added (on-disk size: 2247.9 KB)
0002.513 (0) Adding batch to zip file (UpdraftPlus_ZipArchive): over 500 files added on this batch (7.8 MB, 5216 files batched, 501 (1002) added so far); re-opening (prior size: 2247.9 KB)
0002.998 (0) Zip: backup_2019-04-08-0753_Futura_Pr_Ligas_b2b2e750db6c-plugins.zip.tmp: 1100 files added (on-disk size: 5025.1 KB)
0003.032 (0) Zip: backup_2019-04-08-0753_Futura_Pr_Ligas_b2b2e750db6c-plugins.zip.tmp: 1200 files added (on-disk size: 5025.1 KB)
0003.054 (0) Zip: backup_2019-04-08-0753_Futura_Pr_Ligas_b2b2e750db6c-plugins.zip.tmp: 1300 files added (on-disk size: 5025.1 KB)
0003.077 (0) Zip: backup_2019-04-08-0753_Futura_Pr_Ligas_b2b2e750db6c-plugins.zip.tmp: 1400 files added (on-disk size: 5025.1 KB)
0003.104 (0) Zip: backup_2019-04-08-0753_Futura_Pr_Ligas_b2b2e750db6c-plugins.zip.tmp: 1500 files added (on-disk size: 5025.1 KB)
0003.111 (0) Adding batch to zip file (UpdraftPlus_ZipArchive): over 500 files added on this batch (10.1 MB, 5216 files batched, 501 (1503) added so far); re-opening (prior size: 5025.1 KB)
0003.950 (0) Zip: backup_2019-04-08-0753_Futura_Pr_Ligas_b2b2e750db6c-plugins.zip.tmp: 1600 files added (on-disk size: 7248.3 KB)
0003.973 (0) Zip: backup_2019-04-08-0753_Futura_Pr_Ligas_b2b2e750db6c-plugins.zip.tmp: 1700 files added (on-disk size: 7248.3 KB)
0003.998 (0) Zip: backup_2019-04-08-0753_Futura_Pr_Ligas_b2b2e750db6c-plugins.zip.tmp: 1800 files added (on-disk size: 7248.3 KB)
0004.023 (0) Zip: backup_2019-04-08-0753_Futura_Pr_Ligas_b2b2e750db6c-plugins.zip.tmp: 1900 files added (on-disk size: 7248.3 KB)
0004.046 (0) Zip: backup_2019-04-08-0753_Futura_Pr_Ligas_b2b2e750db6c-plugins.zip.tmp: 2000 files added (on-disk size: 7248.3 KB)
0004.052 (0) Adding batch to zip file (UpdraftPlus_ZipArchive): over 500 files added on this batch (3.7 MB, 5216 files batched, 501 (2004) added so far); re-opening (prior size: 7248.3 KB)
0004.367 (0) Zip: backup_2019-04-08-0753_Futura_Pr_Ligas_b2b2e750db6c-plugins.zip.tmp: 2100 files added (on-disk size: 8426 KB)
0004.393 (0) Zip: backup_2019-04-08-0753_Futura_Pr_Ligas_b2b2e750db6c-plugins.zip.tmp: 2200 files added (on-disk size: 8426 KB)
0004.415 (0) Zip: backup_2019-04-08-0753_Futura_Pr_Ligas_b2b2e750db6c-plugins.zip.tmp: 2300 files added (on-disk size: 8426 KB)
0004.439 (0) Zip: backup_2019-04-08-0753_Futura_Pr_Ligas_b2b2e750db6c-plugins.zip.tmp: 2400 files added (on-disk size: 8426 KB)
0004.464 (0) Zip: backup_2019-04-08-0753_Futura_Pr_Ligas_b2b2e750db6c-plugins.zip.tmp: 2500 files added (on-disk size: 8426 KB)
0004.471 (0) Adding batch to zip file (UpdraftPlus_ZipArchive): over 500 files added on this batch (2.4 MB, 5216 files batched, 501 (2505) added so far); re-opening (prior size: 8426 KB)
0004.794 (0) Zip: backup_2019-04-08-0753_Futura_Pr_Ligas_b2b2e750db6c-plugins.zip.tmp: 2600 files added (on-disk size: 9204.7 KB)
0004.812 (0) Zip: backup_2019-04-08-0753_Futura_Pr_Ligas_b2b2e750db6c-plugins.zip.tmp: 2700 files added (on-disk size: 9204.7 KB)
0004.830 (0) Zip: backup_2019-04-08-0753_Futura_Pr_Ligas_b2b2e750db6c-plugins.zip.tmp: 2800 files added (on-disk size: 9204.7 KB)
0004.852 (0) Zip: backup_2019-04-08-0753_Futura_Pr_Ligas_b2b2e750db6c-plugins.zip.tmp: 2900 files added (on-disk size: 9204.7 KB)
0004.874 (0) Zip: backup_2019-04-08-0753_Futura_Pr_Ligas_b2b2e750db6c-plugins.zip.tmp: 3000 files added (on-disk size: 9204.7 KB)
0004.882 (0) Adding batch to zip file (UpdraftPlus_ZipArchive): over 500 files added on this batch (3.7 MB, 5216 files batched, 501 (3006) added so far); re-opening (prior size: 9204.7 KB)
0007.131 (0) Zip: backup_2019-04-08-0753_Futura_Pr_Ligas_b2b2e750db6c-plugins.zip.tmp: 3100 files added (on-disk size: 10385.2 KB)
0007.151 (0) Zip: backup_2019-04-08-0753_Futura_Pr_Ligas_b2b2e750db6c-plugins.zip.tmp: 3200 files added (on-disk size: 10385.2 KB)
0007.171 (0) Zip: backup_2019-04-08-0753_Futura_Pr_Ligas_b2b2e750db6c-plugins.zip.tmp: 3300 files added (on-disk size: 10385.2 KB)
0007.193 (0) Zip: backup_2019-04-08-0753_Futura_Pr_Ligas_b2b2e750db6c-plugins.zip.tmp: 3400 files added (on-disk size: 10385.2 KB)
0007.211 (0) Zip: backup_2019-04-08-0753_Futura_Pr_Ligas_b2b2e750db6c-plugins.zip.tmp: 3500 files added (on-disk size: 10385.2 KB)
0007.222 (0) Adding batch to zip file (UpdraftPlus_ZipArchive): over 500 files added on this batch (13 MB, 5216 files batched, 501 (3507) added so far); re-opening (prior size: 10385.2 KB)
0011.738 (0) Zip: backup_2019-04-08-0753_Futura_Pr_Ligas_b2b2e750db6c-plugins.zip.tmp: 3600 files added (on-disk size: 14490 KB)
0011.757 (0) Zip: backup_2019-04-08-0753_Futura_Pr_Ligas_b2b2e750db6c-plugins.zip.tmp: 3700 files added (on-disk size: 14490 KB)
0011.775 (0) Zip: backup_2019-04-08-0753_Futura_Pr_Ligas_b2b2e750db6c-plugins.zip.tmp: 3800 files added (on-disk size: 14490 KB)
0011.796 (0) Zip: backup_2019-04-08-0753_Futura_Pr_Ligas_b2b2e750db6c-plugins.zip.tmp: 3900 files added (on-disk size: 14490 KB)
0011.813 (0) Zip: backup_2019-04-08-0753_Futura_Pr_Ligas_b2b2e750db6c-plugins.zip.tmp: 4000 files added (on-disk size: 14490 KB)
0011.821 (0) Adding batch to zip file (UpdraftPlus_ZipArchive): over 500 files added on this batch (6.3 MB, 5216 files batched, 501 (4008) added so far); re-opening (prior size: 14490 KB)
0014.371 (0) Zip: backup_2019-04-08-0753_Futura_Pr_Ligas_b2b2e750db6c-plugins.zip.tmp: 4100 files added (on-disk size: 16110.9 KB)
0014.389 (0) Zip: backup_2019-04-08-0753_Futura_Pr_Ligas_b2b2e750db6c-plugins.zip.tmp: 4200 files added (on-disk size: 16110.9 KB)
0014.412 (0) Zip: backup_2019-04-08-0753_Futura_Pr_Ligas_b2b2e750db6c-plugins.zip.tmp: 4300 files added (on-disk size: 16110.9 KB)
0014.431 (0) Zip: backup_2019-04-08-0753_Futura_Pr_Ligas_b2b2e750db6c-plugins.zip.tmp: 4400 files added (on-disk size: 16110.9 KB)
0014.453 (0) Zip: backup_2019-04-08-0753_Futura_Pr_Ligas_b2b2e750db6c-plugins.zip.tmp: 4500 files added (on-disk size: 16110.9 KB)
0014.460 (0) Adding batch to zip file (UpdraftPlus_ZipArchive): over 500 files added on this batch (4.3 MB, 5216 files batched, 501 (4509) added so far); re-opening (prior size: 16110.9 KB)
0016.743 (0) Zip: backup_2019-04-08-0753_Futura_Pr_Ligas_b2b2e750db6c-plugins.zip.tmp: 4600 files added (on-disk size: 17763.7 KB)
0016.762 (0) Zip: backup_2019-04-08-0753_Futura_Pr_Ligas_b2b2e750db6c-plugins.zip.tmp: 4700 files added (on-disk size: 17763.7 KB)
0016.785 (0) Zip: backup_2019-04-08-0753_Futura_Pr_Ligas_b2b2e750db6c-plugins.zip.tmp: 4800 files added (on-disk size: 17763.7 KB)
0016.802 (0) Zip: backup_2019-04-08-0753_Futura_Pr_Ligas_b2b2e750db6c-plugins.zip.tmp: 4900 files added (on-disk size: 17763.7 KB)
0016.819 (0) Zip: backup_2019-04-08-0753_Futura_Pr_Ligas_b2b2e750db6c-plugins.zip.tmp: 5000 files added (on-disk size: 17763.7 KB)
0016.826 (0) Adding batch to zip file (UpdraftPlus_ZipArchive): over 500 files added on this batch (11.5 MB, 5216 files batched, 501 (5010) added so far); re-opening (prior size: 17763.7 KB)
0024.908 (0) Zip: backup_2019-04-08-0753_Futura_Pr_Ligas_b2b2e750db6c-plugins.zip.tmp: 5100 files added (on-disk size: 22196.8 KB)
0024.926 (0) Zip: backup_2019-04-08-0753_Futura_Pr_Ligas_b2b2e750db6c-plugins.zip.tmp: 5200 files added (on-disk size: 22196.8 KB)
0031.912 (0) Created plugins zip (0) - 23826.1 KB in 31.7 s (751.4 KB/s) (sha1: 0b4c5b766b0d109f3c1560cc1c3c969467009960, sha256: ad05c1c0b8415df7c57ca85ffa7b32dc5fdd84c722e692d93c48a205b0b4c2c8)
0031.923 (0) Beginning creation of dump of themes (split every: 400 MB)
0032.205 (0) Total entities for the zip file: 82 directories, 366 files (0 skipped as non-modified), 7.2 MB
0032.223 (0) Zip: backup_2019-04-08-0753_Futura_Pr_Ligas_b2b2e750db6c-themes.zip.tmp: 100 files added (on-disk size: 0 KB)
0032.242 (0) Zip: backup_2019-04-08-0753_Futura_Pr_Ligas_b2b2e750db6c-themes.zip.tmp: 200 files added (on-disk size: 0 KB)
0032.257 (0) Zip: backup_2019-04-08-0753_Futura_Pr_Ligas_b2b2e750db6c-themes.zip.tmp: 300 files added (on-disk size: 0 KB)
0034.638 (0) Created themes zip (0) - 4952.7 KB in 2.7 s (1827.5 KB/s) (sha1: e4dfcffdef321d1bfda4f605532b1bbf94ec3ec1, sha256: 989f5308c8e1db55f03b73be945eee6478617ff7203947fe344e8d4058f76530)
0034.655 (0) Exclusion option setting (uploads): backup*,*backups,backwpup*,wp-clone,snapshots
0034.660 (0) Looking for candidates to backup in: /home/futurapreligas.com.br/public/sitefutura/wp-content/uploads
0034.666 (0) finding files: wc-logs: adding to list (1)
0034.671 (0) finding files: woocommerce_uploads: adding to list (2)
0034.675 (0) finding files: 2019: adding to list (3)
0034.682 (0) finding files: siteorigin-widgets: adding to list (4)
0034.687 (0) finding files: GeoLite2-Country.mmdb: adding to list (5)
0034.694 (0) Beginning creation of dump of uploads (split every: 400 MB)
0034.730 (0) Total entities for the zip file: 8 directories, 134 files (0 skipped as non-modified), 25 MB
0034.748 (0) Zip: backup_2019-04-08-0753_Futura_Pr_Ligas_b2b2e750db6c-uploads.zip.tmp: 100 files added (on-disk size: 0 KB)
0042.982 (0) Created uploads zip (0) - 23659.8 KB in 8.3 s (2859.3 KB/s) (sha1: 6cbf16cd618cd805bd66eb2d5f4d36cdd847a98f, sha256: 345925d707cd926e418ea0caab057a4a009fef3bd5eef886354cdcdd786ff933)
0042.987 (0) No backup of wpcore: excluded by user's options
0043.002 (0) Beginning backup of other directories found in the content directory (index: 0)
0043.008 (0) Exclusion option setting (others): upgrade,cache,updraft,backup*,*backups,mysql.sql,debug.log
0043.012 (0) Looking for candidates to backup in: /home/futurapreligas.com.br/public/sitefutura/wp-content
0043.020 (0) finding files: index.php: adding to list (1)
0043.026 (0) finding files: languages: adding to list (2)
0043.033 (0) finding files: plugins: skipping: this is the plugins directory
0043.039 (0) finding files: upgrade: skipping: excluded by options
0043.045 (0) finding files: themes: skipping: this is the themes directory
0043.049 (0) finding files: uploads: skipping: this is the uploads directory
0043.055 (0) finding files: advanced-cache.php: adding to list (3)
0043.060 (0) finding files: wp-cache-config.php: adding to list (4)
0043.068 (0) finding files: cache: skipping: excluded by options
0043.074 (0) finding files: updraft: skipping: this is the updraft directory
0043.081 (0) finding files: wflogs: adding to list (5)
0044.642 (0) Total entities for the zip file: 4 directories, 62 files (0 skipped as non-modified), 9.9 MB
0049.030 (0) Created others zip (0) - 3687.9 KB in 5.9 s (621.3 KB/s) (sha1: 5bcaf5041589e6c3fa990cdd27144abb72987e90, sha256: b1a89cddf318ee52a4a31c010356c74ec9fb93d7b0fbf4fe7566719add36a23b)
0049.038 (0) No backup of more: excluded by user's options
0049.064 (0) Saving backup status to database (elements: 8)
0049.090 (0) Beginning creation of database dump (WordPress DB)
0049.275 (0) Table wp_options: Total expected rows (approximate): 609
0049.431 (0) Table wp_options: Total rows added: 614 in 0.15 seconds
0049.437 (0) Table wp_options: finishing file (backup_2019-04-08-0753_Futura_Pr_Ligas_b2b2e750db6c-db-table-wp_options.table.gz - 279.6 KB)
0049.457 (0) Table wp_users: Total expected rows (approximate): 2
0049.469 (0) Table wp_users: Total rows added: 2 in 0.01 seconds
0049.476 (0) Table wp_users: finishing file (backup_2019-04-08-0753_Futura_Pr_Ligas_b2b2e750db6c-db-table-wp_users.table.gz - 0.6 KB)
0049.497 (0) Table wp_usermeta: Total expected rows (approximate): 118
0049.513 (0) Table wp_usermeta: Total rows added: 118 in 0.01 seconds
0049.520 (0) Table wp_usermeta: finishing file (backup_2019-04-08-0753_Futura_Pr_Ligas_b2b2e750db6c-db-table-wp_usermeta.table.gz - 3 KB)
0049.539 (0) Table wp_commentmeta: Total expected rows (approximate): 0
0049.573 (0) Table wp_commentmeta: Total rows added: 0 in 0.03 seconds
0049.587 (0) Table wp_commentmeta: finishing file (backup_2019-04-08-0753_Futura_Pr_Ligas_b2b2e750db6c-db-table-wp_commentmeta.table.gz - 0.4 KB)
0049.608 (0) Table wp_comments: Total expected rows (approximate): 9
0049.637 (0) Table wp_comments: Total rows added: 9 in 0.02 seconds
0049.644 (0) Table wp_comments: finishing file (backup_2019-04-08-0753_Futura_Pr_Ligas_b2b2e750db6c-db-table-wp_comments.table.gz - 1.1 KB)
0049.663 (0) Table wp_links: Total expected rows (approximate): 0
0049.693 (0) Table wp_links: Total rows added: 0 in 0.02 seconds
0049.698 (0) Table wp_links: finishing file (backup_2019-04-08-0753_Futura_Pr_Ligas_b2b2e750db6c-db-table-wp_links.table.gz - 0.4 KB)
0049.725 (0) Table wp_postmeta: Total expected rows (approximate): 4358
0049.904 (0) Table wp_postmeta: Total rows added: 4422 in 0.17 seconds
0049.911 (0) Table wp_postmeta: finishing file (backup_2019-04-08-0753_Futura_Pr_Ligas_b2b2e750db6c-db-table-wp_postmeta.table.gz - 86.1 KB)
0049.928 (0) Table wp_posts: Total expected rows (approximate): 265
0050.063 (0) Table wp_posts: Total rows added: 439 in 0.13 seconds
0050.070 (0) Table wp_posts: finishing file (backup_2019-04-08-0753_Futura_Pr_Ligas_b2b2e750db6c-db-table-wp_posts.table.gz - 113.2 KB)
0050.088 (0) Table wp_term_relationships: Total expected rows (approximate): 134
0050.117 (0) Table wp_term_relationships: Total rows added: 134 in 0.02 seconds
0050.123 (0) Table wp_term_relationships: finishing file (backup_2019-04-08-0753_Futura_Pr_Ligas_b2b2e750db6c-db-table-wp_term_relationships.table.gz - 0.7 KB)
0050.146 (0) Table wp_term_taxonomy: Total expected rows (approximate): 74
0050.159 (0) Table wp_term_taxonomy: Total rows added: 74 in 0.01 seconds
0050.164 (0) Table wp_term_taxonomy: finishing file (backup_2019-04-08-0753_Futura_Pr_Ligas_b2b2e750db6c-db-table-wp_term_taxonomy.table.gz - 0.9 KB)
0050.191 (0) Table wp_termmeta: Total expected rows (approximate): 63
0050.204 (0) Table wp_termmeta: Total rows added: 63 in 0.01 seconds
0050.213 (0) Table wp_termmeta: finishing file (backup_2019-04-08-0753_Futura_Pr_Ligas_b2b2e750db6c-db-table-wp_termmeta.table.gz - 0.7 KB)
0050.234 (0) Table wp_terms: Total expected rows (approximate): 74
0050.253 (0) Table wp_terms: Total rows added: 74 in 0.01 seconds
0050.262 (0) Table wp_terms: finishing file (backup_2019-04-08-0753_Futura_Pr_Ligas_b2b2e750db6c-db-table-wp_terms.table.gz - 1.1 KB)
0050.284 (0) Table wp_woocommerce_order_itemmeta: Total expected rows (approximate): 158
0050.297 (0) Table wp_woocommerce_order_itemmeta: Total rows added: 158 in 0.01 seconds
0050.304 (0) Table wp_woocommerce_order_itemmeta: finishing file (backup_2019-04-08-0753_Futura_Pr_Ligas_b2b2e750db6c-db-table-wp_woocommerce_order_itemmeta.table.gz - 1.6 KB)
0050.327 (0) Table wp_woocommerce_payment_tokenmeta: Total expected rows (approximate): 0
0050.340 (0) Table wp_woocommerce_payment_tokenmeta: Total rows added: 0 in 0.01 seconds
0050.346 (0) Table wp_woocommerce_payment_tokenmeta: finishing file (backup_2019-04-08-0753_Futura_Pr_Ligas_b2b2e750db6c-db-table-wp_woocommerce_payment_tokenmeta.table.gz - 0.4 KB)
0050.371 (0) Table wp_wc_download_log: Total expected rows (approximate): 0
0050.388 (0) Table wp_wc_download_log: Total rows added: 0 in 0.01 seconds
0050.395 (0) Table wp_wc_download_log: finishing file (backup_2019-04-08-0753_Futura_Pr_Ligas_b2b2e750db6c-db-table-wp_wc_download_log.table.gz - 0.4 KB)
0050.421 (0) Table wp_wc_webhooks: Total expected rows (approximate): 0
0050.433 (0) Table wp_wc_webhooks: Total rows added: 0 in 0.01 seconds
0050.438 (0) Table wp_wc_webhooks: finishing file (backup_2019-04-08-0753_Futura_Pr_Ligas_b2b2e750db6c-db-table-wp_wc_webhooks.table.gz - 0.5 KB)
0050.459 (0) Table wp_wfblockediplog: Total expected rows (approximate): 0
0050.470 (0) Table wp_wfblockediplog: Total rows added: 0 in 0.01 seconds
0050.475 (0) Table wp_wfblockediplog: finishing file (backup_2019-04-08-0753_Futura_Pr_Ligas_b2b2e750db6c-db-table-wp_wfblockediplog.table.gz - 0.3 KB)
0050.496 (0) Table wp_wfblocks7: Total expected rows (approximate): 0
0050.519 (0) Table wp_wfblocks7: Total rows added: 0 in 0.01 seconds
0050.525 (0) Table wp_wfblocks7: finishing file (backup_2019-04-08-0753_Futura_Pr_Ligas_b2b2e750db6c-db-table-wp_wfblocks7.table.gz - 0.4 KB)
0050.545 (0) Table wp_wfconfig: Total expected rows (approximate): 247
0050.588 (0) Table wp_wfconfig: Total rows added: 250 in 0.04 seconds
0050.595 (0) Table wp_wfconfig: finishing file (backup_2019-04-08-0753_Futura_Pr_Ligas_b2b2e750db6c-db-table-wp_wfconfig.table.gz - 365 KB)
0050.619 (0) Table wp_wfcrawlers: Total expected rows (approximate): 6
0050.631 (0) Table wp_wfcrawlers: Total rows added: 6 in 0.01 seconds
0050.637 (0) Table wp_wfcrawlers: finishing file (backup_2019-04-08-0753_Futura_Pr_Ligas_b2b2e750db6c-db-table-wp_wfcrawlers.table.gz - 0.5 KB)
0050.660 (0) Table wp_wffilechanges: Total expected rows (approximate): 0
0050.672 (0) Table wp_wffilechanges: Total rows added: 0 in 0.01 seconds
0050.677 (0) Table wp_wffilechanges: finishing file (backup_2019-04-08-0753_Futura_Pr_Ligas_b2b2e750db6c-db-table-wp_wffilechanges.table.gz - 0.3 KB)
0050.701 (0) Table wp_wffilemods: Total expected rows (approximate): 6243
0050.881 (0) Table wp_wffilemods: Total rows added: 6735 in 0.17 seconds
0050.889 (0) Table wp_wffilemods: finishing file (backup_2019-04-08-0753_Futura_Pr_Ligas_b2b2e750db6c-db-table-wp_wffilemods.table.gz - 587.2 KB)
0050.923 (0) Table wp_wfhits: Total expected rows (approximate): 14
0050.935 (0) Table wp_wfhits: Total rows added: 13 in 0.01 seconds
0050.939 (0) Table wp_wfhits: finishing file (backup_2019-04-08-0753_Futura_Pr_Ligas_b2b2e750db6c-db-table-wp_wfhits.table.gz - 1.1 KB)
0050.960 (0) Table wp_wfhoover: Total expected rows (approximate): 0
0050.973 (0) Table wp_wfhoover: Total rows added: 0 in 0.01 seconds
0050.980 (0) Table wp_wfhoover: finishing file (backup_2019-04-08-0753_Futura_Pr_Ligas_b2b2e750db6c-db-table-wp_wfhoover.table.gz - 0.3 KB)
0051.004 (0) Table wp_wfissues: Total expected rows (approximate): 13
0051.018 (0) Table wp_wfissues: Total rows added: 13 in 0.01 seconds
0051.025 (0) Table wp_wfissues: finishing file (backup_2019-04-08-0753_Futura_Pr_Ligas_b2b2e750db6c-db-table-wp_wfissues.table.gz - 2.7 KB)
0051.046 (0) Table wp_wfknownfilelist: Total expected rows (approximate): 6707
0051.116 (0) Table wp_wfknownfilelist: Total rows added: 6735 in 0.07 seconds
0051.121 (0) Table wp_wfknownfilelist: finishing file (backup_2019-04-08-0753_Futura_Pr_Ligas_b2b2e750db6c-db-table-wp_wfknownfilelist.table.gz - 66.8 KB)
0051.137 (0) Table wp_wflivetraffichuman: Total expected rows (approximate): 0
0051.149 (0) Table wp_wflivetraffichuman: Total rows added: 0 in 0.01 seconds
0051.154 (0) Table wp_wflivetraffichuman: finishing file (backup_2019-04-08-0753_Futura_Pr_Ligas_b2b2e750db6c-db-table-wp_wflivetraffichuman.table.gz - 0.3 KB)
0051.177 (0) Table wp_wflocs: Total expected rows (approximate): 1
0051.190 (0) Table wp_wflocs: Total rows added: 1 in 0.01 seconds
0051.195 (0) Table wp_wflocs: finishing file (backup_2019-04-08-0753_Futura_Pr_Ligas_b2b2e750db6c-db-table-wp_wflocs.table.gz - 0.5 KB)
0051.215 (0) Table wp_wflogins: Total expected rows (approximate): 12
0051.227 (0) Table wp_wflogins: Total rows added: 12 in 0.01 seconds
0051.233 (0) Table wp_wflogins: finishing file (backup_2019-04-08-0753_Futura_Pr_Ligas_b2b2e750db6c-db-table-wp_wflogins.table.gz - 0.9 KB)
0051.260 (0) Table wp_wfnotifications: Total expected rows (approximate): 7
0051.284 (0) Table wp_wfnotifications: Total rows added: 7 in 0.01 seconds
0051.291 (0) Table wp_wfnotifications: finishing file (backup_2019-04-08-0753_Futura_Pr_Ligas_b2b2e750db6c-db-table-wp_wfnotifications.table.gz - 0.7 KB)
0051.317 (0) Table wp_wfpendingissues: Total expected rows (approximate): 0
0051.343 (0) Table wp_wfpendingissues: Total rows added: 1 in 0.02 seconds
0051.350 (0) Table wp_wfpendingissues: finishing file (backup_2019-04-08-0753_Futura_Pr_Ligas_b2b2e750db6c-db-table-wp_wfpendingissues.table.gz - 0.7 KB)
0051.380 (0) Table wp_wfreversecache: Total expected rows (approximate): 4
0051.405 (0) Table wp_wfreversecache: Total rows added: 4 in 0.02 seconds
0051.410 (0) Table wp_wfreversecache: finishing file (backup_2019-04-08-0753_Futura_Pr_Ligas_b2b2e750db6c-db-table-wp_wfreversecache.table.gz - 0.4 KB)
0051.431 (0) Table wp_wfsnipcache: Total expected rows (approximate): 0
0051.444 (0) Table wp_wfsnipcache: Total rows added: 0 in 0.01 seconds
0051.449 (0) Table wp_wfsnipcache: finishing file (backup_2019-04-08-0753_Futura_Pr_Ligas_b2b2e750db6c-db-table-wp_wfsnipcache.table.gz - 0.4 KB)
0051.483 (0) Table wp_wfstatus: Total expected rows (approximate): 944
0051.522 (0) Table wp_wfstatus: Total rows added: 953 in 0.03 seconds
0051.531 (0) Table wp_wfstatus: finishing file (backup_2019-04-08-0753_Futura_Pr_Ligas_b2b2e750db6c-db-table-wp_wfstatus.table.gz - 16.4 KB)
0051.558 (0) Table wp_wftrafficrates: Total expected rows (approximate): 0
0051.573 (0) Table wp_wftrafficrates: Total rows added: 0 in 0.01 seconds
0051.580 (0) Table wp_wftrafficrates: finishing file (backup_2019-04-08-0753_Futura_Pr_Ligas_b2b2e750db6c-db-table-wp_wftrafficrates.table.gz - 0.3 KB)
0051.596 (0) Table wp_woocommerce_api_keys: Total expected rows (approximate): 0
0051.622 (0) Table wp_woocommerce_api_keys: Total rows added: 0 in 0.02 seconds
0051.629 (0) Table wp_woocommerce_api_keys: finishing file (backup_2019-04-08-0753_Futura_Pr_Ligas_b2b2e750db6c-db-table-wp_woocommerce_api_keys.table.gz - 0.4 KB)
0051.646 (0) Table wp_woocommerce_attribute_taxonomies: Total expected rows (approximate): 1
0051.657 (0) Table wp_woocommerce_attribute_taxonomies: Total rows added: 1 in 0.01 seconds
0051.661 (0) Table wp_woocommerce_attribute_taxonomies: finishing file (backup_2019-04-08-0753_Futura_Pr_Ligas_b2b2e750db6c-db-table-wp_woocommerce_attribute_taxonomies.table.gz - 0.4 KB)
0051.679 (0) Table wp_woocommerce_downloadable_product_permissions: Total expected rows (approximate): 0
0051.689 (0) Table wp_woocommerce_downloadable_product_permissions: Total rows added: 0 in 0.00 seconds
0051.696 (0) Table wp_woocommerce_downloadable_product_permissions: finishing file (backup_2019-04-08-0753_Futura_Pr_Ligas_b2b2e750db6c-db-table-wp_woocommerce_downloadable_product_permissions.table.gz - 0.5 KB)
0051.717 (0) Table wp_woocommerce_log: Total expected rows (approximate): 0
0051.728 (0) Table wp_woocommerce_log: Total rows added: 0 in 0.01 seconds
0051.732 (0) Table wp_woocommerce_log: finishing file (backup_2019-04-08-0753_Futura_Pr_Ligas_b2b2e750db6c-db-table-wp_woocommerce_log.table.gz - 0.4 KB)
0051.767 (0) Table wp_woocommerce_order_items: Total expected rows (approximate): 19
0051.779 (0) Table wp_woocommerce_order_items: Total rows added: 19 in 0.01 seconds
0051.786 (0) Table wp_woocommerce_order_items: finishing file (backup_2019-04-08-0753_Futura_Pr_Ligas_b2b2e750db6c-db-table-wp_woocommerce_order_items.table.gz - 0.6 KB)
0051.802 (0) Table wp_woocommerce_payment_tokens: Total expected rows (approximate): 0
0051.814 (0) Table wp_woocommerce_payment_tokens: Total rows added: 0 in 0.01 seconds
0051.819 (0) Table wp_woocommerce_payment_tokens: finishing file (backup_2019-04-08-0753_Futura_Pr_Ligas_b2b2e750db6c-db-table-wp_woocommerce_payment_tokens.table.gz - 0.4 KB)
0051.838 (0) Table wp_woocommerce_sessions: Total expected rows (approximate): 0
0051.850 (0) Table wp_woocommerce_sessions: Total rows added: 1 in 0.01 seconds
0051.855 (0) Table wp_woocommerce_sessions: finishing file (backup_2019-04-08-0753_Futura_Pr_Ligas_b2b2e750db6c-db-table-wp_woocommerce_sessions.table.gz - 1.5 KB)
0051.872 (0) Table wp_woocommerce_shipping_zone_locations: Total expected rows (approximate): 4
0051.885 (0) Table wp_woocommerce_shipping_zone_locations: Total rows added: 4 in 0.01 seconds
0051.890 (0) Table wp_woocommerce_shipping_zone_locations: finishing file (backup_2019-04-08-0753_Futura_Pr_Ligas_b2b2e750db6c-db-table-wp_woocommerce_shipping_zone_locations.table.gz - 0.5 KB)
0051.910 (0) Table wp_woocommerce_shipping_zone_methods: Total expected rows (approximate): 7
0051.921 (0) Table wp_woocommerce_shipping_zone_methods: Total rows added: 7 in 0.01 seconds
0051.928 (0) Table wp_woocommerce_shipping_zone_methods: finishing file (backup_2019-04-08-0753_Futura_Pr_Ligas_b2b2e750db6c-db-table-wp_woocommerce_shipping_zone_methods.table.gz - 0.5 KB)
0051.945 (0) Table wp_woocommerce_shipping_zones: Total expected rows (approximate): 3
0051.958 (0) Table wp_woocommerce_shipping_zones: Total rows added: 3 in 0.01 seconds
0051.967 (0) Table wp_woocommerce_shipping_zones: finishing file (backup_2019-04-08-0753_Futura_Pr_Ligas_b2b2e750db6c-db-table-wp_woocommerce_shipping_zones.table.gz - 0.4 KB)
0051.986 (0) Table wp_woocommerce_tax_rate_locations: Total expected rows (approximate): 0
0051.997 (0) Table wp_woocommerce_tax_rate_locations: Total rows added: 0 in 0.01 seconds
0052.002 (0) Table wp_woocommerce_tax_rate_locations: finishing file (backup_2019-04-08-0753_Futura_Pr_Ligas_b2b2e750db6c-db-table-wp_woocommerce_tax_rate_locations.table.gz - 0.4 KB)
0052.021 (0) Table wp_woocommerce_tax_rates: Total expected rows (approximate): 0
0052.033 (0) Table wp_woocommerce_tax_rates: Total rows added: 0 in 0.01 seconds
0052.038 (0) Table wp_woocommerce_tax_rates: finishing file (backup_2019-04-08-0753_Futura_Pr_Ligas_b2b2e750db6c-db-table-wp_woocommerce_tax_rates.table.gz - 0.4 KB)
0052.060 (0) backup_2019-04-08-0753_Futura_Pr_Ligas_b2b2e750db6c-db-table-wp_options.table.gz (1/47): adding to final database dump
0052.135 (0) backup_2019-04-08-0753_Futura_Pr_Ligas_b2b2e750db6c-db-table-wp_users.table.gz (2/47): adding to final database dump
0052.142 (0) backup_2019-04-08-0753_Futura_Pr_Ligas_b2b2e750db6c-db-table-wp_usermeta.table.gz (3/47): adding to final database dump
0052.148 (0) backup_2019-04-08-0753_Futura_Pr_Ligas_b2b2e750db6c-db-table-wp_commentmeta.table.gz (4/47): adding to final database dump
0052.153 (0) backup_2019-04-08-0753_Futura_Pr_Ligas_b2b2e750db6c-db-table-wp_comments.table.gz (5/47): adding to final database dump
0052.159 (0) backup_2019-04-08-0753_Futura_Pr_Ligas_b2b2e750db6c-db-table-wp_links.table.gz (6/47): adding to final database dump
0052.164 (0) backup_2019-04-08-0753_Futura_Pr_Ligas_b2b2e750db6c-db-table-wp_postmeta.table.gz (7/47): adding to final database dump
0052.222 (0) backup_2019-04-08-0753_Futura_Pr_Ligas_b2b2e750db6c-db-table-wp_posts.table.gz (8/47): adding to final database dump
0052.281 (0) backup_2019-04-08-0753_Futura_Pr_Ligas_b2b2e750db6c-db-table-wp_term_relationships.table.gz (9/47): adding to final database dump
0052.285 (0) backup_2019-04-08-0753_Futura_Pr_Ligas_b2b2e750db6c-db-table-wp_term_taxonomy.table.gz (10/47): adding to final database dump
0052.292 (0) backup_2019-04-08-0753_Futura_Pr_Ligas_b2b2e750db6c-db-table-wp_termmeta.table.gz (11/47): adding to final database dump
0052.297 (0) backup_2019-04-08-0753_Futura_Pr_Ligas_b2b2e750db6c-db-table-wp_terms.table.gz (12/47): adding to final database dump
0052.303 (0) backup_2019-04-08-0753_Futura_Pr_Ligas_b2b2e750db6c-db-table-wp_woocommerce_order_itemmeta.table.gz (13/47): adding to final database dump
0052.312 (0) backup_2019-04-08-0753_Futura_Pr_Ligas_b2b2e750db6c-db-table-wp_woocommerce_payment_tokenmeta.table.gz (14/47): adding to final database dump
0052.319 (0) backup_2019-04-08-0753_Futura_Pr_Ligas_b2b2e750db6c-db-table-wp_wc_download_log.table.gz (15/47): adding to final database dump
0052.333 (0) backup_2019-04-08-0753_Futura_Pr_Ligas_b2b2e750db6c-db-table-wp_wc_webhooks.table.gz (16/47): adding to final database dump
0052.338 (0) backup_2019-04-08-0753_Futura_Pr_Ligas_b2b2e750db6c-db-table-wp_wfblockediplog.table.gz (17/47): adding to final database dump
0052.343 (0) backup_2019-04-08-0753_Futura_Pr_Ligas_b2b2e750db6c-db-table-wp_wfblocks7.table.gz (18/47): adding to final database dump
0052.347 (0) backup_2019-04-08-0753_Futura_Pr_Ligas_b2b2e750db6c-db-table-wp_wfconfig.table.gz (19/47): adding to final database dump
0052.378 (0) backup_2019-04-08-0753_Futura_Pr_Ligas_b2b2e750db6c-db-table-wp_wfcrawlers.table.gz (20/47): adding to final database dump
0052.383 (0) backup_2019-04-08-0753_Futura_Pr_Ligas_b2b2e750db6c-db-table-wp_wffilechanges.table.gz (21/47): adding to final database dump
0052.388 (0) backup_2019-04-08-0753_Futura_Pr_Ligas_b2b2e750db6c-db-table-wp_wffilemods.table.gz (22/47): adding to final database dump
0052.467 (0) backup_2019-04-08-0753_Futura_Pr_Ligas_b2b2e750db6c-db-table-wp_wfhits.table.gz (23/47): adding to final database dump
0052.477 (0) backup_2019-04-08-0753_Futura_Pr_Ligas_b2b2e750db6c-db-table-wp_wfhoover.table.gz (24/47): adding to final database dump
0052.483 (0) backup_2019-04-08-0753_Futura_Pr_Ligas_b2b2e750db6c-db-table-wp_wfissues.table.gz (25/47): adding to final database dump
0052.489 (0) backup_2019-04-08-0753_Futura_Pr_Ligas_b2b2e750db6c-db-table-wp_wfknownfilelist.table.gz (26/47): adding to final database dump
0052.514 (0) backup_2019-04-08-0753_Futura_Pr_Ligas_b2b2e750db6c-db-table-wp_wflivetraffichuman.table.gz (27/47): adding to final database dump
0052.520 (0) backup_2019-04-08-0753_Futura_Pr_Ligas_b2b2e750db6c-db-table-wp_wflocs.table.gz (28/47): adding to final database dump
0052.526 (0) backup_2019-04-08-0753_Futura_Pr_Ligas_b2b2e750db6c-db-table-wp_wflogins.table.gz (29/47): adding to final database dump
0052.533 (0) backup_2019-04-08-0753_Futura_Pr_Ligas_b2b2e750db6c-db-table-wp_wfnotifications.table.gz (30/47): adding to final database dump
0052.539 (0) backup_2019-04-08-0753_Futura_Pr_Ligas_b2b2e750db6c-db-table-wp_wfpendingissues.table.gz (31/47): adding to final database dump
0052.546 (0) backup_2019-04-08-0753_Futura_Pr_Ligas_b2b2e750db6c-db-table-wp_wfreversecache.table.gz (32/47): adding to final database dump
0052.561 (0) backup_2019-04-08-0753_Futura_Pr_Ligas_b2b2e750db6c-db-table-wp_wfsnipcache.table.gz (33/47): adding to final database dump
0052.571 (0) backup_2019-04-08-0753_Futura_Pr_Ligas_b2b2e750db6c-db-table-wp_wfstatus.table.gz (34/47): adding to final database dump
0052.585 (0) backup_2019-04-08-0753_Futura_Pr_Ligas_b2b2e750db6c-db-table-wp_wftrafficrates.table.gz (35/47): adding to final database dump
0052.593 (0) backup_2019-04-08-0753_Futura_Pr_Ligas_b2b2e750db6c-db-table-wp_woocommerce_api_keys.table.gz (36/47): adding to final database dump
0052.605 (0) backup_2019-04-08-0753_Futura_Pr_Ligas_b2b2e750db6c-db-table-wp_woocommerce_attribute_taxonomies.table.gz (37/47): adding to final database dump
0052.617 (0) backup_2019-04-08-0753_Futura_Pr_Ligas_b2b2e750db6c-db-table-wp_woocommerce_downloadable_product_permissions.table.gz (38/47): adding to final database dump
0052.628 (0) backup_2019-04-08-0753_Futura_Pr_Ligas_b2b2e750db6c-db-table-wp_woocommerce_log.table.gz (39/47): adding to final database dump
0052.635 (0) backup_2019-04-08-0753_Futura_Pr_Ligas_b2b2e750db6c-db-table-wp_woocommerce_order_items.table.gz (40/47): adding to final database dump
0052.643 (0) backup_2019-04-08-0753_Futura_Pr_Ligas_b2b2e750db6c-db-table-wp_woocommerce_payment_tokens.table.gz (41/47): adding to final database dump
0052.649 (0) backup_2019-04-08-0753_Futura_Pr_Ligas_b2b2e750db6c-db-table-wp_woocommerce_sessions.table.gz (42/47): adding to final database dump
0052.659 (0) backup_2019-04-08-0753_Futura_Pr_Ligas_b2b2e750db6c-db-table-wp_woocommerce_shipping_zone_locations.table.gz (43/47): adding to final database dump
0052.664 (0) backup_2019-04-08-0753_Futura_Pr_Ligas_b2b2e750db6c-db-table-wp_woocommerce_shipping_zone_methods.table.gz (44/47): adding to final database dump
0052.673 (0) backup_2019-04-08-0753_Futura_Pr_Ligas_b2b2e750db6c-db-table-wp_woocommerce_shipping_zones.table.gz (45/47): adding to final database dump
0052.682 (0) backup_2019-04-08-0753_Futura_Pr_Ligas_b2b2e750db6c-db-table-wp_woocommerce_tax_rate_locations.table.gz (46/47): adding to final database dump
0052.693 (0) backup_2019-04-08-0753_Futura_Pr_Ligas_b2b2e750db6c-db-table-wp_woocommerce_tax_rates.table.gz (47/47): adding to final database dump
0052.704 (0) backup_2019-04-08-0753_Futura_Pr_Ligas_b2b2e750db6c-db.gz: finished writing out complete database file (1528 KB)
0052.765 (0) Total database tables backed up: 47 (backup_2019-04-08-0753_Futura_Pr_Ligas_b2b2e750db6c-db.gz, size: 1570428, sha256)
0052.810 (0) backup_2019-04-08-0753_Futura_Pr_Ligas_b2b2e750db6c-plugins.zip: plugins: This file has not yet been successfully uploaded: will queue
0052.815 (0) backup_2019-04-08-0753_Futura_Pr_Ligas_b2b2e750db6c-themes.zip: themes: This file has not yet been successfully uploaded: will queue
0052.821 (0) backup_2019-04-08-0753_Futura_Pr_Ligas_b2b2e750db6c-uploads.zip: uploads: This file has not yet been successfully uploaded: will queue
0052.831 (0) backup_2019-04-08-0753_Futura_Pr_Ligas_b2b2e750db6c-others.zip: others: This file has not yet been successfully uploaded: will queue
0052.839 (0) backup_2019-04-08-0753_Futura_Pr_Ligas_b2b2e750db6c-db.gz: db: This file has not yet been successfully uploaded: will queue
0052.849 (0) Saving backup history. Total backup size: 56.3 MB
0052.875 (0) Requesting upload of the files that have not yet been successfully uploaded (5)
0052.905 (0) Cloud backup selection (1/1): googledrive with instance (1/1) (last)
0052.911 (0) Beginning dispatch of backup to remote (googledrive) (instance identifier s-866a8281bc5125e44d62f2385368fb00)
0053.966 (0) Google Drive: quota usage: used=12167.4 MB, total=15360 MB, available=3192.6 MB
0053.972 (0) Google Drive: backup_2019-04-08-0753_Futura_Pr_Ligas_b2b2e750db6c-plugins.zip: Attempting to upload to Google Drive (into folder id: 1Rwv600z8bT-CfL4htcMnHBx2n7Hul6W7)
0055.314 (0) Googledrive chunked upload: 4.3 % uploaded (1048576)
0056.210 (0) Googledrive chunked upload: 8.6 % uploaded (2097152)
0057.069 (0) Googledrive chunked upload: 12.9 % uploaded (3145728)
0057.951 (0) Googledrive chunked upload: 17.2 % uploaded (4194304)
0058.818 (0) Googledrive chunked upload: 21.5 % uploaded (5242880)
0059.757 (0) Googledrive chunked upload: 25.8 % uploaded (6291456)
0060.670 (0) Googledrive chunked upload: 30.1 % uploaded (7340032)
0061.563 (0) Googledrive chunked upload: 34.4 % uploaded (8388608)
0062.533 (0) Googledrive chunked upload: 38.7 % uploaded (9437184)
0063.405 (0) Googledrive chunked upload: 43 % uploaded (10485760)
0064.316 (0) Googledrive chunked upload: 47.3 % uploaded (11534336)
0065.263 (0) Googledrive chunked upload: 51.6 % uploaded (12582912)
0066.156 (0) Googledrive chunked upload: 55.9 % uploaded (13631488)
0067.180 (0) Googledrive chunked upload: 60.2 % uploaded (14680064)
0068.053 (0) Googledrive chunked upload: 64.5 % uploaded (15728640)
0068.902 (0) Googledrive chunked upload: 68.8 % uploaded (16777216)
0069.813 (0) Googledrive chunked upload: 73.1 % uploaded (17825792)
0070.709 (0) Googledrive chunked upload: 77.4 % uploaded (18874368)
0071.587 (0) Googledrive chunked upload: 81.7 % uploaded (19922944)
0072.516 (0) Googledrive chunked upload: 86 % uploaded (20971520)
0073.478 (0) Googledrive chunked upload: 90.3 % uploaded (22020096)
0074.390 (0) Googledrive chunked upload: 94.6 % uploaded (23068672)
0075.280 (0) Googledrive chunked upload: 98.8 % uploaded (24117248)
0076.618 (0) Googledrive chunked upload: 100 % uploaded (24117248)
0076.635 (0) Google Drive: OK: Archive backup_2019-04-08-0753_Futura_Pr_Ligas_b2b2e750db6c-plugins.zip uploaded in 22.65 seconds
0076.641 (0) Recording as successfully uploaded: backup_2019-04-08-0753_Futura_Pr_Ligas_b2b2e750db6c-plugins.zip
0076.656 (0) Deleting local file: backup_2019-04-08-0753_Futura_Pr_Ligas_b2b2e750db6c-plugins.zip: OK
0077.001 (0) Google Drive: quota usage: used=12167.4 MB, total=15360 MB, available=3192.6 MB
0077.007 (0) Google Drive: backup_2019-04-08-0753_Futura_Pr_Ligas_b2b2e750db6c-themes.zip: Attempting to upload to Google Drive (into folder id: 1Rwv600z8bT-CfL4htcMnHBx2n7Hul6W7)
0078.316 (0) Googledrive chunked upload: 20.7 % uploaded (1048576)
0079.201 (0) Googledrive chunked upload: 41.4 % uploaded (2097152)
0080.074 (0) Googledrive chunked upload: 62 % uploaded (3145728)
0080.921 (0) Googledrive chunked upload: 82.7 % uploaded (4194304)
0082.848 (0) Googledrive chunked upload: 100 % uploaded (4194304)
0082.872 (0) Google Drive: OK: Archive backup_2019-04-08-0753_Futura_Pr_Ligas_b2b2e750db6c-themes.zip uploaded in 5.86 seconds
0082.878 (0) Recording as successfully uploaded: backup_2019-04-08-0753_Futura_Pr_Ligas_b2b2e750db6c-themes.zip
0082.897 (0) Deleting local file: backup_2019-04-08-0753_Futura_Pr_Ligas_b2b2e750db6c-themes.zip: OK
0083.224 (0) Google Drive: quota usage: used=12195.5 MB, total=15360 MB, available=3164.5 MB
0083.229 (0) Google Drive: backup_2019-04-08-0753_Futura_Pr_Ligas_b2b2e750db6c-uploads.zip: Attempting to upload to Google Drive (into folder id: 1Rwv600z8bT-CfL4htcMnHBx2n7Hul6W7)
0084.512 (0) Googledrive chunked upload: 4.3 % uploaded (1048576)
0085.535 (0) Googledrive chunked upload: 8.7 % uploaded (2097152)
0086.448 (0) Googledrive chunked upload: 13 % uploaded (3145728)
0087.400 (0) Googledrive chunked upload: 17.3 % uploaded (4194304)
0088.278 (0) Googledrive chunked upload: 21.6 % uploaded (5242880)
0089.206 (0) Googledrive chunked upload: 26 % uploaded (6291456)
0090.095 (0) Googledrive chunked upload: 30.3 % uploaded (7340032)
0091.045 (0) Googledrive chunked upload: 34.6 % uploaded (8388608)
0091.952 (0) Googledrive chunked upload: 39 % uploaded (9437184)
0092.843 (0) Googledrive chunked upload: 43.3 % uploaded (10485760)
0093.744 (0) Googledrive chunked upload: 47.6 % uploaded (11534336)
0094.681 (0) Googledrive chunked upload: 51.9 % uploaded (12582912)
0095.648 (0) Googledrive chunked upload: 56.3 % uploaded (13631488)
0096.580 (0) Googledrive chunked upload: 60.6 % uploaded (14680064)
0097.455 (0) Googledrive chunked upload: 64.9 % uploaded (15728640)
0098.422 (0) Googledrive chunked upload: 69.2 % uploaded (16777216)
0099.317 (0) Googledrive chunked upload: 73.6 % uploaded (17825792)
0100.224 (0) Googledrive chunked upload: 77.9 % uploaded (18874368)
0101.145 (0) Googledrive chunked upload: 82.2 % uploaded (19922944)
0102.096 (0) Googledrive chunked upload: 86.6 % uploaded (20971520)
0103.019 (0) Googledrive chunked upload: 90.9 % uploaded (22020096)
0103.884 (0) Googledrive chunked upload: 95.2 % uploaded (23068672)
0104.818 (0) Googledrive chunked upload: 99.5 % uploaded (24117248)
0106.002 (0) Googledrive chunked upload: 100 % uploaded (24117248)
0106.021 (0) Google Drive: OK: Archive backup_2019-04-08-0753_Futura_Pr_Ligas_b2b2e750db6c-uploads.zip uploaded in 22.79 seconds
0106.031 (0) Recording as successfully uploaded: backup_2019-04-08-0753_Futura_Pr_Ligas_b2b2e750db6c-uploads.zip
0106.046 (0) Deleting local file: backup_2019-04-08-0753_Futura_Pr_Ligas_b2b2e750db6c-uploads.zip: OK
0106.394 (0) Google Drive: quota usage: used=12218.6 MB, total=15360 MB, available=3141.4 MB
0106.399 (0) Google Drive: backup_2019-04-08-0753_Futura_Pr_Ligas_b2b2e750db6c-others.zip: Attempting to upload to Google Drive (into folder id: 1Rwv600z8bT-CfL4htcMnHBx2n7Hul6W7)
0107.711 (0) Googledrive chunked upload: 27.8 % uploaded (1048576)
0108.605 (0) Googledrive chunked upload: 55.5 % uploaded (2097152)
0109.548 (0) Googledrive chunked upload: 83.3 % uploaded (3145728)
0111.334 (0) Googledrive chunked upload: 100 % uploaded (3145728)
0111.368 (0) Google Drive: OK: Archive backup_2019-04-08-0753_Futura_Pr_Ligas_b2b2e750db6c-others.zip uploaded in 4.96 seconds
0111.376 (0) Recording as successfully uploaded: backup_2019-04-08-0753_Futura_Pr_Ligas_b2b2e750db6c-others.zip
0111.400 (0) Deleting local file: backup_2019-04-08-0753_Futura_Pr_Ligas_b2b2e750db6c-others.zip: OK
0111.747 (0) Google Drive: quota usage: used=12222.2 MB, total=15360 MB, available=3137.8 MB
0111.754 (0) Google Drive: backup_2019-04-08-0753_Futura_Pr_Ligas_b2b2e750db6c-db.gz: Attempting to upload to Google Drive (into folder id: 1Rwv600z8bT-CfL4htcMnHBx2n7Hul6W7)
0113.125 (0) Googledrive chunked upload: 66.8 % uploaded (1048576)
0114.510 (0) Googledrive chunked upload: 100 % uploaded (1048576)
0114.532 (0) Google Drive: OK: Archive backup_2019-04-08-0753_Futura_Pr_Ligas_b2b2e750db6c-db.gz uploaded in 2.77 seconds
0114.541 (0) Recording as successfully uploaded: backup_2019-04-08-0753_Futura_Pr_Ligas_b2b2e750db6c-db.gz
0114.554 (0) Deleting local file: backup_2019-04-08-0753_Futura_Pr_Ligas_b2b2e750db6c-db.gz: OK
0114.567 (0) Retain: beginning examination of existing backup sets; user setting: retain_files=2, retain_db=2
0114.574 (0) Number of backup sets in history: 5; groups (db): 1
0114.581 (0) Examining (for databases) backup set with group_id=0, nonce=b2b2e750db6c, datestamp=1554720784 (Apr 08 2019 10:53:04)
0114.587 (0) This backup set is the backup set just made, so will not be deleted.
0114.587 (0) Examining (for databases) backup set with group_id=0, nonce=da3755a429fb, datestamp=1554720446 (Apr 08 2019 10:47:26)
0114.587 (0) This backup set (1554720446) was an automatic backup, and we have not yet reached any retain limits, so it will not be counted or pruned. Skipping.
0114.587 (0) Examining (for databases) backup set with group_id=0, nonce=6f80b1f84903, datestamp=1554609098 (Apr 07 2019 03:51:38)
0114.587 (0) This backup set remains non-empty (f=1/d=1); will retain in history
0114.596 (0) Examining (for databases) backup set with group_id=0, nonce=027702bb388c, datestamp=1554122560 (Apr 01 2019 12:42:40)
0114.596 (0) Examining (for databases) backup set with group_id=0, nonce=cefccad15cf0, datestamp=1552473724 (Mar 13 2019 10:42:04)
0114.596 (0) Number of backup sets in history: 5; groups (files): 1
0114.602 (0) Examining (for files) backup set with nonce=b2b2e750db6c, datestamp=1554720784 (Apr 08 2019 10:53:04)
0114.602 (0) This backup set is the backup set just made, so will not be deleted.
0114.612 (0) This backup set is the backup set just made, so will not be deleted.
0114.612 (0) This backup set is the backup set just made, so will not be deleted.
0114.612 (0) This backup set is the backup set just made, so will not be deleted.
0114.612 (0) This backup set remains non-empty (f=1/d=1); will retain in history
0114.617 (0) Examining (for files) backup set with nonce=da3755a429fb, datestamp=1554720446 (Apr 08 2019 10:47:26)
0114.617 (0) This backup set (1554720446) was an automatic backup, and we have not yet reached any retain limits, so it will not be counted or pruned. Skipping.
0114.617 (0) This backup set remains non-empty (f=1/d=1); will retain in history
0114.618 (0) Examining (for files) backup set with nonce=6f80b1f84903, datestamp=1554609098 (Apr 07 2019 03:51:38)
0114.618 (0) This backup set remains non-empty (f=1/d=1); will retain in history
0114.618 (0) Examining (for files) backup set with nonce=027702bb388c, datestamp=1554122560 (Apr 01 2019 12:42:40)
0114.618 (0) themes: over retain limit (2); will delete this file entity
0114.618 (0) uploads: over retain limit (2); will delete this file entity
0114.618 (0) others: over retain limit (2); will delete this file entity
0114.618 (0) Delete file: backup_2019-04-01-0942_Futura_Pr_Ligas_027702bb388c-themes.zip, service=googledrive
0114.623 (0) Delete file: backup_2019-04-01-1512_Futura_Pr_Ligas_027702bb388c-themes2.zip, service=googledrive
0114.630 (0) Delete file: backup_2019-04-02-2011_Futura_Pr_Ligas_027702bb388c-themes3.zip, service=googledrive
0114.634 (0) Delete file: backup_2019-04-03-2127_Futura_Pr_Ligas_027702bb388c-themes4.zip, service=googledrive
0114.643 (0) Delete file: backup_2019-04-04-1929_Futura_Pr_Ligas_027702bb388c-themes5.zip, service=googledrive
0114.647 (0) Delete file: backup_2019-04-05-1818_Futura_Pr_Ligas_027702bb388c-themes6.zip, service=googledrive
0114.653 (0) Delete file: backup_2019-04-06-1604_Futura_Pr_Ligas_027702bb388c-themes7.zip, service=googledrive
0114.658 (0) Delete file: backup_2019-04-01-0942_Futura_Pr_Ligas_027702bb388c-uploads.zip, service=googledrive
0114.665 (0) Delete file: backup_2019-04-01-1512_Futura_Pr_Ligas_027702bb388c-uploads2.zip, service=googledrive
0114.669 (0) Delete file: backup_2019-04-02-2011_Futura_Pr_Ligas_027702bb388c-uploads3.zip, service=googledrive
0114.674 (0) Delete file: backup_2019-04-03-2127_Futura_Pr_Ligas_027702bb388c-uploads4.zip, service=googledrive
0114.681 (0) Delete file: backup_2019-04-04-1929_Futura_Pr_Ligas_027702bb388c-uploads5.zip, service=googledrive
0114.687 (0) Delete file: backup_2019-04-05-1818_Futura_Pr_Ligas_027702bb388c-uploads6.zip, service=googledrive
0114.692 (0) Delete file: backup_2019-04-06-1604_Futura_Pr_Ligas_027702bb388c-uploads7.zip, service=googledrive
0114.697 (0) Delete file: backup_2019-04-01-0942_Futura_Pr_Ligas_027702bb388c-others.zip, service=googledrive
0114.701 (0) Delete file: backup_2019-04-01-1512_Futura_Pr_Ligas_027702bb388c-others2.zip, service=googledrive
0114.705 (0) Delete file: backup_2019-04-02-2011_Futura_Pr_Ligas_027702bb388c-others3.zip, service=googledrive
0114.711 (0) Delete file: backup_2019-04-03-2127_Futura_Pr_Ligas_027702bb388c-others4.zip, service=googledrive
0114.722 (0) Delete file: backup_2019-04-04-1929_Futura_Pr_Ligas_027702bb388c-others5.zip, service=googledrive
0114.728 (0) Delete file: backup_2019-04-05-1818_Futura_Pr_Ligas_027702bb388c-others6.zip, service=googledrive
0114.734 (0) Delete file: backup_2019-04-06-1604_Futura_Pr_Ligas_027702bb388c-others7.zip, service=googledrive
0116.074 (0) Google Drive: backup_2019-04-06-1604_Futura_Pr_Ligas_027702bb388c-others7.zip: Deletion successful
0116.832 (0) Google Drive: backup_2019-04-06-1604_Futura_Pr_Ligas_027702bb388c-uploads7.zip: Deletion successful
0117.437 (0) Google Drive: backup_2019-04-06-1604_Futura_Pr_Ligas_027702bb388c-themes7.zip: Deletion successful
0118.294 (0) Google Drive: backup_2019-04-05-1818_Futura_Pr_Ligas_027702bb388c-others6.zip: Deletion successful
0118.845 (0) Google Drive: backup_2019-04-05-1818_Futura_Pr_Ligas_027702bb388c-uploads6.zip: Deletion successful
0119.493 (0) Google Drive: backup_2019-04-05-1818_Futura_Pr_Ligas_027702bb388c-themes6.zip: Deletion successful
0120.072 (0) Google Drive: backup_2019-04-04-1929_Futura_Pr_Ligas_027702bb388c-others5.zip: Deletion successful
0120.696 (0) Google Drive: backup_2019-04-04-1929_Futura_Pr_Ligas_027702bb388c-uploads5.zip: Deletion successful
0121.309 (0) Google Drive: backup_2019-04-04-1929_Futura_Pr_Ligas_027702bb388c-themes5.zip: Deletion successful
0121.897 (0) Google Drive: backup_2019-04-03-2127_Futura_Pr_Ligas_027702bb388c-others4.zip: Deletion successful
0122.556 (0) Google Drive: backup_2019-04-03-2127_Futura_Pr_Ligas_027702bb388c-uploads4.zip: Deletion successful
0123.186 (0) Google Drive: backup_2019-04-03-2127_Futura_Pr_Ligas_027702bb388c-themes4.zip: Deletion successful
0124.038 (0) Google Drive: backup_2019-04-02-2011_Futura_Pr_Ligas_027702bb388c-others3.zip: Deletion successful
0125.211 (0) Google Drive: backup_2019-04-02-2011_Futura_Pr_Ligas_027702bb388c-uploads3.zip: Deletion successful
0125.862 (0) Google Drive: backup_2019-04-02-2011_Futura_Pr_Ligas_027702bb388c-themes3.zip: Deletion successful
0126.649 (0) Google Drive: backup_2019-04-01-1512_Futura_Pr_Ligas_027702bb388c-others2.zip: Deletion successful
0127.281 (0) Google Drive: backup_2019-04-01-1512_Futura_Pr_Ligas_027702bb388c-uploads2.zip: Deletion successful
0127.834 (0) Google Drive: backup_2019-04-01-1512_Futura_Pr_Ligas_027702bb388c-themes2.zip: Deletion successful
0128.602 (0) Google Drive: backup_2019-04-01-0942_Futura_Pr_Ligas_027702bb388c-others.zip: Deletion successful
0129.157 (0) Google Drive: backup_2019-04-01-0942_Futura_Pr_Ligas_027702bb388c-uploads.zip: Deletion successful
0129.904 (0) Google Drive: backup_2019-04-01-0942_Futura_Pr_Ligas_027702bb388c-themes.zip: Deletion successful
0129.917 (0) This backup set is now empty; will remove from history
0129.924 (0) Deleting log file (log.027702bb388c.txt)
0129.938 (0) Examining (for files) backup set with nonce=cefccad15cf0, datestamp=1552473724 (Mar 13 2019 10:42:04)
0129.952 (0) This backup set (1552473724) was an automatic backup, and we have not yet reached any retain limits, so it will not be counted or pruned. Skipping.
0129.952 (0) This backup set remains non-empty (f=1/d=0); will retain in history
0129.961 (0) Retain: saving new backup history (sets now: 4) and finishing retain operation
0129.988 (0) Resume backup (b2b2e750db6c, 0): finish run
0130.005 (0) Decremented the semaphore (fd) by 1
0130.016 (0) Semaphore (fd) unlocked
0130.023 (0) There were no errors in the uploads, so the 'resume' event (1) is being unscheduled
0130.044 (0) The backup apparently succeeded and is now complete
0130.056 (0) Sending email ('Arquivos e banco de dados (Backup Completo (Full))') report (attachments: 0, size: 50.1 KB) to: edina...
0131.246 (0) O backup aparentemente foi bem sucedido e está completo agora.
0000.000 (1) Opened log file at time: Mon, 08 Apr 2019 11:51:57 +0000 on http://futurapreligas-com-br.umbler.net/sitefutura
0000.009 (1) UpdraftPlus WordPress backup plugin (https://updraftplus.com): 2.16.10.24 WP: 5.1.1 PHP: 7.3.0 (fpm-fcgi, Linux UBAPDWEB12779 3.10.0-229.20.1.el7.x86_64 #1 SMP Tue Nov 3 19:10:07 UTC 2015 x86_64) MySQL: 5.6.40-log WPLANG: pt_BR Server: Apache safe_mode: 0 max_execution_time: 30 memory_limit: 256M (used: 18.6M | 6M) multisite: N openssl: OpenSSL 1.0.2k  26 Jan 2017 mcrypt: Y LANG:  ZipArchive::addFile: Y
0000.014 (1) Free space on disk containing Updraft's temporary directory: 14459.1 MB
0000.018 (1) This backup task (b2b2e750db6c) is either complete or began over 2 days ago: ending (1554724317.5264, ) (existing jobdata keys: )
